…
    ## Rows: 52179 Columns: 12
    ## ── Column specification ────────────────────────────────────────────────────────
    ## Delimiter: ","
    ## chr (9): uid, victim_last, victim_first, victim_race, victim_age, victim_sex...
    ## dbl (3): reported_date, lat, lon
    ## 
    ## ℹ Use `spec()` to retrieve the full column specification for this data.
    ## ℹ Specify the column types or set `show_col_types = FALSE` to quiet this message.

``` r
homicide
```

    ## # A tibble: 52,179 × 12
    ##    uid   repor…¹ victi…² victi…³ victi…⁴ victi…⁵ victi…⁶ city  state   lat   lon
    ##    <chr>   <dbl> <chr>   <chr>   <chr>   <chr>   <chr>   <chr> <chr> <dbl> <dbl>
    ##  1 Alb-…  2.01e7 GARCIA  JUAN    Hispan… 78      Male    Albu… NM     35.1 -107.
    ##  2 Alb-…  2.01e7 MONTOYA CAMERON Hispan… 17      Male    Albu… NM     35.1 -107.
    ##  3 Alb-…  2.01e7 SATTER… VIVIANA White   15      Female  Albu… NM     35.1 -107.
    ##  4 Alb-…  2.01e7 MENDIO… CARLOS  Hispan… 32      Male    Albu… NM     35.1 -107.
    ##  5 Alb-…  2.01e7 MULA    VIVIAN  White   72      Female  Albu… NM     35.1 -107.
    ##  6 Alb-…  2.01e7 BOOK    GERALD… White   91      Female  Albu… NM     35.2 -107.
    ##  7 Alb-…  2.01e7 MALDON… DAVID   Hispan… 52      Male    Albu… NM     35.1 -107.
    ##  8 Alb-…  2.01e7 MALDON… CONNIE  Hispan… 52      Female  Albu… NM     35.1 -107.
    ##  9 Alb-…  2.01e7 MARTIN… GUSTAVO White   56      Male    Albu… NM     35.1 -107.
    ## 10 Alb-…  2.01e7 HERRERA ISRAEL  Hispan… 43      Male    Albu… NM     35.1 -107.
    ## # … with 52,169 more rows, 1 more variable: disposition <chr>, and abbreviated
    ## #   variable names ¹​reported_date, ²​victim_last, ³​victim_first, ⁴​victim_race,
    ## #   ⁵​victim_age, ⁶​victim_sex
…
In the raw homicide data, there are 52179 observations and 12 variables.

### Create new variables

``` r
homicide = homicide %>%
  mutate(city_state = str_c(city, ", ", state)) %>%
  mutate(homicide_status = if_else(disposition == "Closed without arrest", "unsolved",
                                   if_else(disposition == "Open/No arrest", "unsolved",
                                           if_else(disposition == "Closed by arrest", "solved", NA_character_))))

homicide
```

    ## # A tibble: 52,179 × 14
    ##    uid   repor…¹ victi…² victi…³ victi…⁴ victi…⁵ victi…⁶ city  state   lat   lon
    ##    <chr>   <dbl> <chr>   <chr>   <chr>   <chr>   <chr>   <chr> <chr> <dbl> <dbl>
    ##  1 Alb-…  2.01e7 GARCIA  JUAN    Hispan… 78      Male    Albu… NM     35.1 -107.
    ##  2 Alb-…  2.01e7 MONTOYA CAMERON Hispan… 17      Male    Albu… NM     35.1 -107.
    ##  3 Alb-…  2.01e7 SATTER… VIVIANA White   15      Female  Albu… NM     35.1 -107.
    ##  4 Alb-…  2.01e7 MENDIO… CARLOS  Hispan… 32      Male    Albu… NM     35.1 -107.
    ##  5 Alb-…  2.01e7 MULA    VIVIAN  White   72      Female  Albu… NM     35.1 -107.
    ##  6 Alb-…  2.01e7 BOOK    GERALD… White   91      Female  Albu… NM     35.2 -107.
    ##  7 Alb-…  2.01e7 MALDON… DAVID   Hispan… 52      Male    Albu… NM     35.1 -107.
    ##  8 Alb-…  2.01e7 MALDON… CONNIE  Hispan… 52      Female  Albu… NM     35.1 -107.
    ##  9 Alb-…  2.01e7 MARTIN… GUSTAVO White   56      Male    Albu… NM     35.1 -107.
    ## 10 Alb-…  2.01e7 HERRERA ISRAEL  Hispan… 43      Male    Albu… NM     35.1 -107.
    ## # … with 52,169 more rows, 3 more variables: disposition <chr>,
    ## #   city_state <chr>, homicide_status <chr>, and abbreviated variable names
    ## #   ¹​reported_date, ²​victim_last, ³​victim_first, ⁴​victim_race, ⁵​victim_age,
    ## #   ⁶​victim_sex
…
